Distancia recorrida Incilius spiculatus
…
Preparar los datos

Importar dataframe

Importar datos del archivo excel

> #importar datos
> df1 <- readxl::read_excel(here("Data", "spicu2.xlsx"), sheet = "in")

observacion del raw data

> df1

## # A tibble: 30 × 26
##    Especie     Sitio Individuo Sexo  Edad  Distancia24hrs Distancia total recc…¹
##    <chr>       <chr>     <dbl> <chr> <chr> <chr>                           <dbl>
##  1 Incilius s… Cons…         1 Juve… Juve… .                                85.9
##  2 Incilius s… Pert…         2 Juve… Juve… .                                36.3
##  3 Incilius s… Pert…         3 Juve… Juve… .                                27.2
##  4 Incilius s… Pert…         4 Macho Adul… 18.46                            18.5
##  5 Incilius s… Cons…         5 Macho Adul… 39.27333333                     121. 
##  6 Incilius s… Cons…         6 Macho Adul… 26.4                            143. 
##  7 Incilius s… Cons…         7 Hemb… Adul… 32.445                          140. 
##  8 Incilius s… Cons…         8 Macho Adul… 33.0200000000…                   66.0
##  9 Incilius s… Pert…         9 Macho Adul… 25.67                            87.6
## 10 Incilius s… Pert…        10 Hemb… Adul… 51.0349999999…                  246. 
## # ℹ 20 more rows
## # ℹ abbreviated name: ¹​`Distancia total reccorida`
## # ℹ 19 more variables: Mes <chr>, Temporada <chr>, LHC <dbl>, Peso <dbl>,
## #   `RESIDUOS POR SEXO` <dbl>, Observaciones_Inmovil <dbl>, Moviendose <dbl>,
## #   `Total de observaciones` <dbl>, `% Inmovil` <dbl>, `% Moviendose` <dbl>,
## #   MCP_Area_m <dbl>, MCP_Perimetro <dbl>, NDVI_SMO <dbl>, EVI_SMO <dbl>,
## #   NDWI_SMO <dbl>, NDMI_SMO <dbl>, LST_SMO <dbl>, CME_SMO_15 <dbl>, …
…
> Estandarizar <- function(x){
+   (x-mean(x, na.rm = T))/sd(x, na.rm = T)
+ }

Y aplicaremos dicha funcion a todas las variables numericas
guardandolo en otro datframe, porque los datos originales los
utilizaremos al final

> dfdatos1Est <- dfdatos1
> dfdatos1Est[c(2:8)] <- apply(X = dfdatos1Est[c(2:8)], MARGIN = 2, FUN = Estandarizar)
> dfdatos1Est

## # A tibble: 30 × 11
##    Distancia24hrs NDVI_SMO EVI_SMO NDWI_SMO NDMI_SMO LST_SMO CME_SMO_15
##             <dbl>    <dbl>   <dbl>    <dbl>    <dbl>   <dbl>      <dbl>
##  1           NA     0.863    1.01   -0.924     0.740  -0.772      0.838
##  2           NA     0.579    0.312  -0.895    -0.408  -0.976      0.612
##  3           NA     0.615    0.283  -0.646     0.742  -1.12      -0.821
##  4           18.5   0.545    0.351  -0.472     0.312  -0.961     -0.867
##  5           39.3  -3.11    -0.821   2.91     -2.55   -1.35       0.846
##  6           26.4  -2.44    -0.261   2.21     -2.06   -1.28       0.853
##  7           32.4  -2.44    -0.261   2.21     -2.06   -1.28       0.853
##  8           33.0   0.238   -1.59    0.0184    2.00   -0.794      0.793
##  9           25.7   0.155   -0.224  -0.126     0.329   0.419     -0.950
## 10           51.0  -0.0185  -0.544   0.119    -0.129   0.329     -0.942
## # ℹ 20 more rows
## # ℹ 4 more variables: Altura_de_arbol <dbl>, Sitio_cons <dbl>,
## #   Sex_hembra <dbl>, Temporada_seca <dbl>
…
Sitio

0.198

Note: 

 Point biserial correlation

Graficando los resultados

> dfdatos1Est1 <- na.omit(dfdatos1Est)
> dfdatos1Est1

## # A tibble: 27 × 11
##    Distancia24hrs NDVI_SMO EVI_SMO NDWI_SMO NDMI_SMO LST_SMO CME_SMO_15
##             <dbl>    <dbl>   <dbl>    <dbl>    <dbl>   <dbl>      <dbl>
##  1           18.5   0.545    0.351  -0.472   0.312    -0.961     -0.867
##  2           39.3  -3.11    -0.821   2.91   -2.55     -1.35       0.846
##  3           26.4  -2.44    -0.261   2.21   -2.06     -1.28       0.853
##  4           32.4  -2.44    -0.261   2.21   -2.06     -1.28       0.853
##  5           33.0   0.238   -1.59    0.0184  2.00     -0.794      0.793
##  6           25.7   0.155   -0.224  -0.126   0.329     0.419     -0.950
##  7           51.0  -0.0185  -0.544   0.119  -0.129     0.329     -0.942
##  8           48.3  -0.0264   0.256   0.0699  0.00280   0.219     -1.42 
##  9           39.0   0.571    0.277  -0.468   1.24      0.239     -1.69 
## 10           41.3  -0.910   -1.23    1.24   -0.497     0.181     -1.32 
## # ℹ 17 more rows
## # ℹ 4 more variables: Altura_de_arbol <dbl>, Sitio_cons <dbl>,
## #   Sex_hembra <dbl>, Temporada_seca <dbl>
…
GLM´s multiples

El paso siguiente es determinar que variables son las que nos
permiten predecir mejor los resultados, se puede tener el mismo enfoque
que se hizo previamente en los modelos simples pero se ira un paso mas
lejos y probaremos con todas las posibles combinaciones de las variables
predictoras para encontrar el mejor modelo posible.

El “mejor” modelo sera determinado usando el criterio de akaike

> dfmatrix <- dfdatos1Est1[,c(2:length(dfdatos1Est1),1)]
> names(dfmatrix)[11] <- "y"
> dfmatrix

## # A tibble: 27 × 11
##    NDVI_SMO EVI_SMO NDWI_SMO NDMI_SMO LST_SMO CME_SMO_15 Altura_de_arbol
##       <dbl>   <dbl>    <dbl>    <dbl>   <dbl>      <dbl>           <dbl>
##  1   0.545    0.351  -0.472   0.312    -0.961     -0.867          -0.403
##  2  -3.11    -0.821   2.91   -2.55     -1.35       0.846          -0.509
##  3  -2.44    -0.261   2.21   -2.06     -1.28       0.853          -0.872
##  4  -2.44    -0.261   2.21   -2.06     -1.28       0.853           0.599
##  5   0.238   -1.59    0.0184  2.00     -0.794      0.793          -1.02 
##  6   0.155   -0.224  -0.126   0.329     0.419     -0.950           1.75 
##  7  -0.0185  -0.544   0.119  -0.129     0.329     -0.942           0.245
##  8  -0.0264   0.256   0.0699  0.00280   0.219     -1.42           -1.41 
##  9   0.571    0.277  -0.468   1.24      0.239     -1.69           -0.906
## 10  -0.910   -1.23    1.24   -0.497     0.181     -1.32           -0.762
## # ℹ 17 more rows
## # ℹ 4 more variables: Sitio_cons <dbl>, Sex_hembra <dbl>, Temporada_seca <dbl>,
## #   y <dbl>
…
Es decir podemos usar nuestro propio modelo para predecir los 3
valores faltantes de nuestro conjunto de datos original, ya que las
demas variables si las teniamos disponibles

> dfdatos1Est$Predicciones <- predicciones
> largo <- length(dfdatos1Est)
> mostrar <- c(largo, 1:(largo-1))
> 
> dfdatos1Est[mostrar]

## # A tibble: 30 × 12
##    Predicciones Distancia24hrs NDVI_SMO EVI_SMO NDWI_SMO NDMI_SMO LST_SMO
##           <dbl>          <dbl>    <dbl>   <dbl>    <dbl>    <dbl>   <dbl>
##  1        11.1            NA     0.863    1.01   -0.924     0.740  -0.772
##  2         8.08           NA     0.579    0.312  -0.895    -0.408  -0.976
##  3        13.5            NA     0.615    0.283  -0.646     0.742  -1.12 
##  4        15.2            18.5   0.545    0.351  -0.472     0.312  -0.961
##  5        30.6            39.3  -3.11    -0.821   2.91     -2.55   -1.35 
##  6        27.4            26.4  -2.44    -0.261   2.21     -2.06   -1.28 
##  7        47.4            32.4  -2.44    -0.261   2.21     -2.06   -1.28 
##  8        40.7            33.0   0.238   -1.59    0.0184    2.00   -0.794
##  9        18.0            25.7   0.155   -0.224  -0.126     0.329   0.419
## 10        36.8            51.0  -0.0185  -0.544   0.119    -0.129   0.329
## # ℹ 20 more rows
## # ℹ 5 more variables: CME_SMO_15 <dbl>, Altura_de_arbol <dbl>,
## #   Sitio_cons <dbl>, Sex_hembra <dbl>, Temporada_seca <dbl>
…
